module github.com/keltia/erc-cimbl

require (
	github.com/BurntSushi/toml v0.3.1
	github.com/h2non/gock v1.0.10
	github.com/keltia/archive v0.3.3
	github.com/keltia/proxy v0.9.5
	github.com/keltia/sandbox v0.9.3
	github.com/maxim2266/csvplus v0.3.3
	github.com/nbio/st v0.0.0-20140626010706-e9e8d9816f32 // indirect
	github.com/pkg/errors v0.8.1
	github.com/stretchr/testify v1.3.0
)

go 1.13
